IS415 - Take-home Exercise 1: Geographical distribution of Armed Conflict in Myanmar
…
#EPSG:4144 for Kalianpur 1937 Myanmar (Burma) - Moattama area. , accuracy 5.0 m, #code 1533 (default) [3]

conflict_data_sf <- conflict_data %>%
  st_as_sf(coords = c("longitude", "latitude"), crs = 4326)%>%
  st_transform(crs = 4144)

conflict_data_sf

Simple feature collection with 42608 features and 30 fields
Geometry type: POINT
Dimension:     XY
Bounding box:  xmin: 92.18668 ymin: 9.980644 xmax: 100.3576 ymax: 27.5053
Geodetic CRS:  Kalianpur 1937
# A tibble: 42,608 × 31
   event_id_cnty event_date    year time_precision disorder_type      event_type
 * <chr>         <chr>        <dbl>          <dbl> <chr>              <chr>     
 1 MMR64313      30 June 2024  2024              1 Political violence Battles   
 2 MMR64320      30 June 2024  2024              1 Political violence Battles   
 3 MMR64321      30 June 2024  2024              1 Political violence Battles   
 4 MMR64322      30 June 2024  2024              1 Strategic develop… Strategic…
 5 MMR64323      30 June 2024  2024              1 Political violence Battles   
 6 MMR64324      30 June 2024  2024              1 Strategic develop… Strategic…
 7 MMR64325      30 June 2024  2024              1 Political violence Battles   
 8 MMR64326      30 June 2024  2024              1 Political violence Battles   
 9 MMR64328      30 June 2024  2024              1 Political violence Battles   
10 MMR64330      30 June 2024  2024              1 Political violence Battles   
# ℹ 42,598 more rows
# ℹ 25 more variables: sub_event_type <chr>, actor1 <chr>, assoc_actor_1 <chr>,
#   inter1 <dbl>, actor2 <chr>, assoc_actor_2 <chr>, inter2 <dbl>,
#   interaction <dbl>, civilian_targeting <chr>, iso <dbl>, region <chr>,
#   country <chr>, admin1 <chr>, admin2 <chr>, admin3 <chr>, location <chr>,
#   geo_precision <dbl>, source <chr>, source_scale <chr>, notes <chr>,
#   fatalities <dbl>, tags <chr>, timestamp <dbl>, population_best <dbl>, …
…
